<?xml version="1.0" encoding="utf-8"  standalone="no"?>
<!DOCTYPE svg PUBLIC "-//W3C//DTD SVG 1.1//EN" 
 "http://www.w3.org/Graphics/SVG/1.1/DTD/svg11.dtd">
<svg 
 width="600" height="480" 
 viewBox="0 0 600 480"
 xmlns="http://www.w3.org/2000/svg"
 xmlns:xlink="http://www.w3.org/1999/xlink"
>

<title>Gnuplot</title>
<desc>Produced by GNUPLOT 4.6 patchlevel 5 </desc>

<g id="gnuplot_canvas">

<rect x="0" y="0" width="600" height="480" fill="none"/>
<defs>

	<circle id='gpDot' r='0.5' stroke-width='0.5'/>
	<path id='gpPt0' stroke-width='0.222' stroke='currentColor' d='M-1,0 h2 M0,-1 v2'/>
	<path id='gpPt1' stroke-width='0.222' stroke='currentColor' d='M-1,-1 L1,1 M1,-1 L-1,1'/>
	<path id='gpPt2' stroke-width='0.222' stroke='currentColor' d='M-1,0 L1,0 M0,-1 L0,1 M-1,-1 L1,1 M-1,1 L1,-1'/>
	<rect id='gpPt3' stroke-width='0.222' stroke='currentColor' x='-1' y='-1' width='2' height='2'/>
	<rect id='gpPt4' stroke-width='0.222' stroke='currentColor' fill='currentColor' x='-1' y='-1' width='2' height='2'/>
	<circle id='gpPt5' stroke-width='0.222' stroke='currentColor' cx='0' cy='0' r='1'/>
	<use xlink:href='#gpPt5' id='gpPt6' fill='currentColor' stroke='none'/>
	<path id='gpPt7' stroke-width='0.222' stroke='currentColor' d='M0,-1.33 L-1.33,0.67 L1.33,0.67 z'/>
	<use xlink:href='#gpPt7' id='gpPt8' fill='currentColor' stroke='none'/>
	<use xlink:href='#gpPt7' id='gpPt9' stroke='currentColor' transform='rotate(180)'/>
	<use xlink:href='#gpPt9' id='gpPt10' fill='currentColor' stroke='none'/>
	<use xlink:href='#gpPt3' id='gpPt11' stroke='currentColor' transform='rotate(45)'/>
	<use xlink:href='#gpPt11' id='gpPt12' fill='currentColor' stroke='none'/>
</defs>
<g style="fill:none; color:white; stroke:currentColor; stroke-width:1.00; stroke-linecap:butt; stroke-linejoin:miter">
</g>
<g style="fill:none; color:black; stroke:currentColor; stroke-width:1.00; stroke-linecap:butt; stroke-linejoin:miter">
	<path stroke='black'  d='M45.6,444.0 L54.6,444.0 M575.0,444.0 L566.0,444.0  '/>	<g transform="translate(37.3,448.5)" style="stroke:none; fill:black; font-family:Arial; font-size:12.00pt; text-anchor:end">
		<text> 5</text>
	</g>
	<path stroke='black'  d='M45.6,390.6 L54.6,390.6 M575.0,390.6 L566.0,390.6  '/>	<g transform="translate(37.3,395.1)" style="stroke:none; fill:black; font-family:Arial; font-size:12.00pt; text-anchor:end">
		<text> 10</text>
	</g>
	<path stroke='black'  d='M45.6,337.2 L54.6,337.2 M575.0,337.2 L566.0,337.2  '/>	<g transform="translate(37.3,341.7)" style="stroke:none; fill:black; font-family:Arial; font-size:12.00pt; text-anchor:end">
		<text> 15</text>
	</g>
	<path stroke='black'  d='M45.6,283.8 L54.6,283.8 M575.0,283.8 L566.0,283.8  '/>	<g transform="translate(37.3,288.3)" style="stroke:none; fill:black; font-family:Arial; font-size:12.00pt; text-anchor:end">
		<text> 20</text>
	</g>
	<path stroke='black'  d='M45.6,230.3 L54.6,230.3 M575.0,230.3 L566.0,230.3  '/>	<g transform="translate(37.3,234.8)" style="stroke:none; fill:black; font-family:Arial; font-size:12.00pt; text-anchor:end">
		<text> 25</text>
	</g>
	<path stroke='black'  d='M45.6,176.9 L54.6,176.9 M575.0,176.9 L566.0,176.9  '/>	<g transform="translate(37.3,181.4)" style="stroke:none; fill:black; font-family:Arial; font-size:12.00pt; text-anchor:end">
		<text> 30</text>
	</g>
	<path stroke='black'  d='M45.6,123.5 L54.6,123.5 M575.0,123.5 L566.0,123.5  '/>	<g transform="translate(37.3,128.0)" style="stroke:none; fill:black; font-family:Arial; font-size:12.00pt; text-anchor:end">
		<text> 35</text>
	</g>
	<path stroke='black'  d='M45.6,70.1 L54.6,70.1 M575.0,70.1 L566.0,70.1  '/>	<g transform="translate(37.3,74.6)" style="stroke:none; fill:black; font-family:Arial; font-size:12.00pt; text-anchor:end">
		<text> 40</text>
	</g>
	<path stroke='black'  d='M45.6,16.7 L54.6,16.7 M575.0,16.7 L566.0,16.7  '/>	<g transform="translate(37.3,21.2)" style="stroke:none; fill:black; font-family:Arial; font-size:12.00pt; text-anchor:end">
		<text> 45</text>
	</g>
	<path stroke='black'  d='M45.6,444.0 L45.6,435.0 M45.6,16.7 L45.6,25.7  '/>	<g transform="translate(45.6,466.5)" style="stroke:none; fill:black; font-family:Arial; font-size:12.00pt; text-anchor:middle">
		<text> 0</text>
	</g>
	<path stroke='black'  d='M111.8,444.0 L111.8,435.0 M111.8,16.7 L111.8,25.7  '/>	<g transform="translate(111.8,466.5)" style="stroke:none; fill:black; font-family:Arial; font-size:12.00pt; text-anchor:middle">
		<text> 5</text>
	</g>
	<path stroke='black'  d='M178.0,444.0 L178.0,435.0 M178.0,16.7 L178.0,25.7  '/>	<g transform="translate(178.0,466.5)" style="stroke:none; fill:black; font-family:Arial; font-size:12.00pt; text-anchor:middle">
		<text> 10</text>
	</g>
	<path stroke='black'  d='M244.1,444.0 L244.1,435.0 M244.1,16.7 L244.1,25.7  '/>	<g transform="translate(244.1,466.5)" style="stroke:none; fill:black; font-family:Arial; font-size:12.00pt; text-anchor:middle">
		<text> 15</text>
	</g>
	<path stroke='black'  d='M310.3,444.0 L310.3,435.0 M310.3,16.7 L310.3,25.7  '/>	<g transform="translate(310.3,466.5)" style="stroke:none; fill:black; font-family:Arial; font-size:12.00pt; text-anchor:middle">
		<text> 20</text>
	</g>
	<path stroke='black'  d='M376.5,444.0 L376.5,435.0 M376.5,16.7 L376.5,25.7  '/>	<g transform="translate(376.5,466.5)" style="stroke:none; fill:black; font-family:Arial; font-size:12.00pt; text-anchor:middle">
		<text> 25</text>
	</g>
	<path stroke='black'  d='M442.7,444.0 L442.7,435.0 M442.7,16.7 L442.7,25.7  '/>	<g transform="translate(442.7,466.5)" style="stroke:none; fill:black; font-family:Arial; font-size:12.00pt; text-anchor:middle">
		<text> 30</text>
	</g>
	<path stroke='black'  d='M508.8,444.0 L508.8,435.0 M508.8,16.7 L508.8,25.7  '/>	<g transform="translate(508.8,466.5)" style="stroke:none; fill:black; font-family:Arial; font-size:12.00pt; text-anchor:middle">
		<text> 35</text>
	</g>
	<path stroke='black'  d='M575.0,444.0 L575.0,435.0 M575.0,16.7 L575.0,25.7  '/>	<g transform="translate(575.0,466.5)" style="stroke:none; fill:black; font-family:Arial; font-size:12.00pt; text-anchor:middle">
		<text> 40</text>
	</g>
	<path stroke='black'  d='M45.6,16.7 L45.6,444.0 L575.0,444.0 L575.0,16.7 L45.6,16.7 Z  '/></g>
	<g id="gnuplot_plot_1" ><title>gnuplot_plot_1</title>
<g style="fill:none; color:red; stroke:currentColor; stroke-width:1.00; stroke-linecap:butt; stroke-linejoin:miter">
	<path stroke='red'  d='M58.8,241.0 L72.1,369.2 L85.3,123.5 L98.5,358.5 L111.8,251.7 L125.0,209.0 L138.2,187.6 L151.5,326.5 
		L164.7,209.0 L178.0,251.7 L191.2,155.6 L204.4,326.5 L217.7,326.5 L230.9,209.0 L244.1,209.0 L257.4,209.0 
		L270.6,230.3 L283.8,251.7 L297.1,209.0 L310.3,176.9 L323.5,337.2 L336.8,112.8 L350.0,209.0 L363.2,209.0 
		L376.5,369.2 L389.7,337.2 L402.9,326.5 L416.2,209.0 L429.4,219.7 L442.7,337.2 L455.9,337.2 L469.1,91.5 
		L482.4,369.2 L495.6,326.5 L508.8,326.5 L522.1,209.0 L535.3,326.5 L548.5,209.0 L561.8,251.7 L575.0,209.0 
		 '/></g>
	</g>
	<g id="gnuplot_plot_2" ><title>gnuplot_plot_2</title>
<g style="fill:none; color:green; stroke:currentColor; stroke-width:1.00; stroke-linecap:butt; stroke-linejoin:miter">
	<path stroke='green'  d='M58.8,326.5 L72.1,91.5 L85.3,347.9 L98.5,251.7 L111.8,241.0 L125.0,347.9 L138.2,251.7 L151.5,198.3 
		L164.7,337.2 L178.0,337.2 L191.2,112.8 L204.4,251.7 L217.7,219.7 L230.9,337.2 L244.1,347.9 L257.4,176.9 
		L270.6,294.4 L283.8,337.2 L297.1,369.2 L310.3,241.0 L323.5,112.8 L336.8,241.0 L350.0,369.2 L363.2,91.5 
		L376.5,209.0 L389.7,358.5 L402.9,337.2 L416.2,219.7 L429.4,219.7 L442.7,102.2 L455.9,305.1 L469.1,369.2 
		L482.4,209.0 L495.6,358.5 L508.8,369.2 L522.1,219.7 L535.3,347.9 L548.5,315.8 L561.8,219.7 L575.0,369.2 
		 '/></g>
	</g>
	<g id="gnuplot_plot_3" ><title>gnuplot_plot_3</title>
<g style="fill:none; color:blue; stroke:currentColor; stroke-width:1.00; stroke-linecap:butt; stroke-linejoin:miter">
	<path stroke='blue'  d='M58.8,379.9 L72.1,230.3 L85.3,358.5 L98.5,209.0 L111.8,326.5 L125.0,283.8 L138.2,219.7 L151.5,369.2 
		L164.7,315.8 L178.0,347.9 L191.2,358.5 L204.4,112.8 L217.7,369.2 L230.9,347.9 L244.1,337.2 L257.4,230.3 
		L270.6,219.7 L283.8,294.4 L297.1,198.3 L310.3,283.8 L323.5,209.0 L336.8,347.9 L350.0,209.0 L363.2,209.0 
		L376.5,219.7 L389.7,187.6 L402.9,251.7 L416.2,219.7 L429.4,219.7 L442.7,209.0 L455.9,209.0 L469.1,273.1 
		L482.4,219.7 L495.6,294.4 L508.8,305.1 L522.1,209.0 L535.3,209.0 L548.5,251.7 L561.8,219.7 L575.0,112.8 
		 '/></g>
	</g>
	<g id="gnuplot_plot_4" ><title>gnuplot_plot_4</title>
<g style="fill:none; color:cyan; stroke:currentColor; stroke-width:1.00; stroke-linecap:butt; stroke-linejoin:miter">
	<path stroke='cyan'  d='M58.8,273.1 L72.1,326.5 L85.3,326.5 L98.5,209.0 L111.8,209.0 L125.0,209.0 L138.2,369.2 L151.5,337.2 
		L164.7,176.9 L178.0,209.0 L191.2,326.5 L204.4,358.5 L217.7,91.5 L230.9,337.2 L244.1,315.8 L257.4,326.5 
		L270.6,241.0 L283.8,219.7 L297.1,326.5 L310.3,337.2 L323.5,326.5 L336.8,219.7 L350.0,80.8 L363.2,326.5 
		L376.5,166.3 L389.7,91.5 L402.9,230.3 L416.2,326.5 L429.4,219.7 L442.7,102.2 L455.9,230.3 L469.1,369.2 
		L482.4,219.7 L495.6,134.2 L508.8,230.3 L522.1,358.5 L535.3,283.8 L548.5,251.7 L561.8,315.8 L575.0,155.6 
		 '/></g>
	</g>
	<g id="gnuplot_plot_5" ><title>gnuplot_plot_5</title>
<g style="fill:none; color:#157545; stroke:currentColor; stroke-width:1.00; stroke-linecap:butt; stroke-linejoin:miter">
	<path stroke='#157545'  d='M58.8,209.0 L72.1,326.5 L85.3,251.7 L98.5,251.7 L111.8,305.1 L125.0,337.2 L138.2,294.4 L151.5,209.0 
		L164.7,209.0 L178.0,198.3 L191.2,315.8 L204.4,230.3 L217.7,326.5 L230.9,337.2 L244.1,219.7 L257.4,209.0 
		L270.6,209.0 L283.8,209.0 L297.1,230.3 L310.3,209.0 L323.5,91.5 L336.8,347.9 L350.0,326.5 L363.2,209.0 
		L376.5,251.7 L389.7,219.7 L402.9,305.1 L416.2,219.7 L429.4,176.9 L442.7,219.7 L455.9,379.9 L469.1,230.3 
		L482.4,209.0 L495.6,198.3 L508.8,294.4 L522.1,326.5 L535.3,198.3 L548.5,91.5 L561.8,294.4 L575.0,337.2 
		 '/></g>
	</g>
	<g id="gnuplot_plot_6" ><title>gnuplot_plot_6</title>
<g style="fill:none; color:#000094; stroke:currentColor; stroke-width:1.00; stroke-linecap:butt; stroke-linejoin:miter">
	<path stroke='#000094'  d='M58.8,134.2 L72.1,123.5 L85.3,326.5 L98.5,273.1 L111.8,230.3 L125.0,315.8 L138.2,305.1 L151.5,326.5 
		L164.7,209.0 L178.0,326.5 L191.2,294.4 L204.4,209.0 L217.7,166.3 L230.9,219.7 L244.1,251.7 L257.4,251.7 
		L270.6,134.2 L283.8,369.2 L297.1,294.4 L310.3,273.1 L323.5,155.6 L336.8,219.7 L350.0,337.2 L363.2,337.2 
		L376.5,176.9 L389.7,187.6 L402.9,294.4 L416.2,176.9 L429.4,209.0 L442.7,251.7 L455.9,219.7 L469.1,155.6 
		L482.4,294.4 L495.6,230.3 L508.8,166.3 L522.1,326.5 L535.3,187.6 L548.5,144.9 L561.8,219.7 L575.0,294.4 
		 '/></g>
	</g>
	<g id="gnuplot_plot_7" ><title>gnuplot_plot_7</title>
<g style="fill:none; color:#FF9900; stroke:currentColor; stroke-width:1.00; stroke-linecap:butt; stroke-linejoin:miter">
	<path stroke='#FF9900'  d='M58.8,166.3 L72.1,369.2 L85.3,369.2 L98.5,134.2 L111.8,134.2 L125.0,305.1 L138.2,219.7 L151.5,251.7 
		L164.7,134.2 L178.0,379.9 L191.2,337.2 L204.4,251.7 L217.7,262.4 L230.9,337.2 L244.1,369.2 L257.4,326.5 
		L270.6,187.6 L283.8,315.8 L297.1,337.2 L310.3,251.7 L323.5,209.0 L336.8,326.5 L350.0,369.2 L363.2,166.3 
		L376.5,134.2 L389.7,326.5 L402.9,273.1 L416.2,91.5 L429.4,219.7 L442.7,209.0 L455.9,326.5 L469.1,251.7 
		L482.4,198.3 L495.6,219.7 L508.8,166.3 L522.1,251.7 L535.3,176.9 L548.5,134.2 L561.8,347.9 L575.0,379.9 
		 '/></g>
	</g>
	<g id="gnuplot_plot_8" ><title>gnuplot_plot_8</title>
<g style="fill:none; color:#0099A1; stroke:currentColor; stroke-width:1.00; stroke-linecap:butt; stroke-linejoin:miter">
	<path stroke='#0099A1'  d='M58.8,209.0 L72.1,230.3 L85.3,369.2 L98.5,326.5 L111.8,305.1 L125.0,251.7 L138.2,369.2 L151.5,358.5 
		L164.7,251.7 L178.0,187.6 L191.2,187.6 L204.4,326.5 L217.7,379.9 L230.9,273.1 L244.1,209.0 L257.4,337.2 
		L270.6,369.2 L283.8,315.8 L297.1,347.9 L310.3,347.9 L323.5,369.2 L336.8,230.3 L350.0,176.9 L363.2,134.2 
		L376.5,166.3 L389.7,241.0 L402.9,209.0 L416.2,134.2 L429.4,326.5 L442.7,283.8 L455.9,251.7 L469.1,251.7 
		L482.4,251.7 L495.6,251.7 L508.8,251.7 L522.1,187.6 L535.3,326.5 L548.5,294.4 L561.8,209.0 L575.0,134.2 
		 '/></g>
	</g>
	<g id="gnuplot_plot_9" ><title>gnuplot_plot_9</title>
<g style="fill:none; color:#D6D645; stroke:currentColor; stroke-width:1.00; stroke-linecap:butt; stroke-linejoin:miter">
	<path stroke='#D6D645'  d='M58.8,187.6 L72.1,241.0 L85.3,251.7 L98.5,134.2 L111.8,230.3 L125.0,273.1 L138.2,294.4 L151.5,369.2 
		L164.7,326.5 L178.0,315.8 L191.2,166.3 L204.4,369.2 L217.7,315.8 L230.9,315.8 L244.1,144.9 L257.4,283.8 
		L270.6,283.8 L283.8,209.0 L297.1,209.0 L310.3,305.1 L323.5,241.0 L336.8,326.5 L350.0,166.3 L363.2,209.0 
		L376.5,358.5 L389.7,369.2 L402.9,176.9 L416.2,134.2 L429.4,209.0 L442.7,294.4 L455.9,347.9 L469.1,187.6 
		L482.4,379.9 L495.6,315.8 L508.8,134.2 L522.1,209.0 L535.3,187.6 L548.5,251.7 L561.8,155.6 L575.0,241.0 
		 '/></g>
	</g>
	<g id="gnuplot_plot_10" ><title>gnuplot_plot_10</title>
<g style="fill:none; color:#A391FF; stroke:currentColor; stroke-width:1.00; stroke-linecap:butt; stroke-linejoin:miter">
	<path stroke='#A391FF'  d='M58.8,209.0 L72.1,112.8 L85.3,123.5 L98.5,209.0 L111.8,241.0 L125.0,347.9 L138.2,326.5 L151.5,358.5 
		L164.7,209.0 L178.0,251.7 L191.2,315.8 L204.4,241.0 L217.7,230.3 L230.9,315.8 L244.1,337.2 L257.4,219.7 
		L270.6,59.4 L283.8,337.2 L297.1,315.8 L310.3,219.7 L323.5,16.7 L336.8,59.4 L350.0,59.4 L363.2,241.0 
		L376.5,219.7 L389.7,251.7 L402.9,209.0 L416.2,251.7 L429.4,134.2 L442.7,251.7 L455.9,251.7 L469.1,347.9 
		L482.4,59.4 L495.6,251.7 L508.8,337.2 L522.1,315.8 L535.3,209.0 L548.5,219.7 L561.8,166.3 L575.0,315.8 
		 '/></g>
	</g>
	<g id="gnuplot_plot_11" ><title>gnuplot_plot_11</title>
<g style="fill:none; color:#FFCC00; stroke:currentColor; stroke-width:1.00; stroke-linecap:butt; stroke-linejoin:miter">
	<path stroke='#FFCC00'  d='M58.8,91.5 L72.1,230.3 L85.3,230.3 L98.5,358.5 L111.8,315.8 L125.0,219.7 L138.2,251.7 L151.5,251.7 
		L164.7,369.2 L178.0,112.8 L191.2,198.3 L204.4,337.2 L217.7,369.2 L230.9,358.5 L244.1,251.7 L257.4,70.1 
		L270.6,209.0 L283.8,326.5 L297.1,70.1 L310.3,102.2 L323.5,358.5 L336.8,337.2 L350.0,251.7 L363.2,59.4 
		L376.5,209.0 L389.7,369.2 L402.9,219.7 L416.2,230.3 L429.4,219.7 L442.7,369.2 L455.9,241.0 L469.1,230.3 
		L482.4,337.2 L495.6,337.2 L508.8,315.8 L522.1,209.0 L535.3,347.9 L548.5,347.9 L561.8,369.2 L575.0,326.5 
		 '/></g>
	</g>
	<g id="gnuplot_plot_12" ><title>gnuplot_plot_12</title>
<g style="fill:none; color:#D60078; stroke:currentColor; stroke-width:1.00; stroke-linecap:butt; stroke-linejoin:miter">
	<path stroke='#D60078'  d='M58.8,294.4 L72.1,155.6 L85.3,241.0 L98.5,176.9 L111.8,369.2 L125.0,219.7 L138.2,80.8 L151.5,134.2 
		L164.7,337.2 L178.0,209.0 L191.2,123.5 L204.4,198.3 L217.7,326.5 L230.9,209.0 L244.1,219.7 L257.4,219.7 
		L270.6,134.2 L283.8,219.7 L297.1,369.2 L310.3,209.0 L323.5,347.9 L336.8,326.5 L350.0,134.2 L363.2,209.0 
		L376.5,251.7 L389.7,219.7 L402.9,294.4 L416.2,251.7 L429.4,369.2 L442.7,326.5 L455.9,209.0 L469.1,251.7 
		L482.4,134.2 L495.6,209.0 L508.8,326.5 L522.1,337.2 L535.3,283.8 L548.5,315.8 L561.8,326.5 L575.0,219.7 
		 '/></g>
	</g>
	<g id="gnuplot_plot_13" ><title>gnuplot_plot_13</title>
<g style="fill:none; color:#ABD600; stroke:currentColor; stroke-width:1.00; stroke-linecap:butt; stroke-linejoin:miter">
	<path stroke='#ABD600'  d='M58.8,337.2 L72.1,251.7 L85.3,315.8 L98.5,241.0 L111.8,369.2 L125.0,337.2 L138.2,219.7 L151.5,251.7 
		L164.7,347.9 L178.0,134.2 L191.2,251.7 L204.4,134.2 L217.7,209.0 L230.9,134.2 L244.1,369.2 L257.4,155.6 
		L270.6,251.7 L283.8,294.4 L297.1,134.2 L310.3,219.7 L323.5,326.5 L336.8,337.2 L350.0,337.2 L363.2,219.7 
		L376.5,219.7 L389.7,294.4 L402.9,294.4 L416.2,219.7 L429.4,134.2 L442.7,273.1 L455.9,209.0 L469.1,273.1 
		L482.4,209.0 L495.6,337.2 L508.8,209.0 L522.1,326.5 L535.3,198.3 L548.5,315.8 L561.8,305.1 L575.0,241.0 
		 '/></g>
	</g>
	<g id="gnuplot_plot_14" ><title>gnuplot_plot_14</title>
<g style="fill:none; color:red; stroke:currentColor; stroke-width:1.00; stroke-linecap:butt; stroke-linejoin:miter">
	<path stroke='red'  d='M58.8,219.7 L72.1,369.2 L85.3,273.1 L98.5,134.2 L111.8,369.2 L125.0,412.0 L138.2,412.0 L151.5,134.2 
		L164.7,369.2 L178.0,241.0 L191.2,176.9 L204.4,273.1 L217.7,187.6 L230.9,326.5 L244.1,412.0 L257.4,251.7 
		L270.6,294.4 L283.8,379.9 L297.1,369.2 L310.3,134.2 L323.5,209.0 L336.8,347.9 L350.0,358.5 L363.2,166.3 
		L376.5,283.8 L389.7,251.7 L402.9,347.9 L416.2,294.4 L429.4,209.0 L442.7,134.2 L455.9,251.7 L469.1,305.1 
		L482.4,166.3 L495.6,283.8 L508.8,326.5 L522.1,251.7 L535.3,123.5 L548.5,326.5 L561.8,294.4 L575.0,273.1 
		 '/></g>
	</g>
	<g id="gnuplot_plot_15" ><title>gnuplot_plot_15</title>
<g style="fill:none; color:green; stroke:currentColor; stroke-width:1.00; stroke-linecap:butt; stroke-linejoin:miter">
	<path stroke='green'  d='M58.8,166.3 L72.1,369.2 L85.3,283.8 L98.5,251.7 L111.8,251.7 L125.0,219.7 L138.2,273.1 L151.5,155.6 
		L164.7,273.1 L178.0,166.3 L191.2,369.2 L204.4,209.0 L217.7,134.2 L230.9,166.3 L244.1,294.4 L257.4,337.2 
		L270.6,273.1 L283.8,251.7 L297.1,305.1 L310.3,369.2 L323.5,251.7 L336.8,251.7 L350.0,187.6 L363.2,369.2 
		L376.5,294.4 L389.7,262.4 L402.9,294.4 L416.2,294.4 L429.4,305.1 L442.7,326.5 L455.9,294.4 L469.1,273.1 
		L482.4,273.1 L495.6,294.4 L508.8,369.2 L522.1,326.5 L535.3,273.1 L548.5,315.8 L561.8,337.2 L575.0,379.9 
		 '/></g>
	</g>
	<g id="gnuplot_plot_16" ><title>gnuplot_plot_16</title>
<g style="fill:none; color:blue; stroke:currentColor; stroke-width:1.00; stroke-linecap:butt; stroke-linejoin:miter">
	<path stroke='blue'  d='M58.8,305.1 L72.1,315.8 L85.3,187.6 L98.5,187.6 L111.8,305.1 L125.0,315.8 L138.2,187.6 L151.5,315.8 
		L164.7,305.1 L178.0,305.1 L191.2,187.6 L204.4,187.6 L217.7,209.0 L230.9,198.3 L244.1,326.5 L257.4,187.6 
		L270.6,166.3 L283.8,187.6 L297.1,315.8 L310.3,166.3 L323.5,155.6 L336.8,294.4 L350.0,187.6 L363.2,209.0 
		L376.5,305.1 L389.7,305.1 L402.9,187.6 L416.2,315.8 L429.4,326.5 L442.7,326.5 L455.9,176.9 L469.1,209.0 
		L482.4,294.4 L495.6,294.4 L508.8,315.8 L522.1,187.6 L535.3,294.4 L548.5,187.6 L561.8,166.3 L575.0,166.3 
		 '/></g>
	</g>
	<g id="gnuplot_plot_17" ><title>gnuplot_plot_17</title>
<g style="fill:none; color:cyan; stroke:currentColor; stroke-width:1.00; stroke-linecap:butt; stroke-linejoin:miter">
	<path stroke='cyan'  d='M58.8,155.6 L72.1,315.8 L85.3,176.9 L98.5,305.1 L111.8,187.6 L125.0,187.6 L138.2,305.1 L151.5,155.6 
		L164.7,155.6 L178.0,305.1 L191.2,187.6 L204.4,187.6 L217.7,315.8 L230.9,305.1 L244.1,315.8 L257.4,166.3 
		L270.6,326.5 L283.8,326.5 L297.1,187.6 L310.3,187.6 L323.5,187.6 L336.8,294.4 L350.0,187.6 L363.2,166.3 
		L376.5,187.6 L389.7,187.6 L402.9,326.5 L416.2,315.8 L429.4,315.8 L442.7,315.8 L455.9,305.1 L469.1,187.6 
		L482.4,187.6 L495.6,187.6 L508.8,326.5 L522.1,187.6 L535.3,187.6 L548.5,315.8 L561.8,315.8 L575.0,176.9 
		 '/></g>
	</g>
	<g id="gnuplot_plot_18" ><title>gnuplot_plot_18</title>
<g style="fill:none; color:#157545; stroke:currentColor; stroke-width:1.00; stroke-linecap:butt; stroke-linejoin:miter">
	<path stroke='#157545'  d='M58.8,326.5 L72.1,166.3 L85.3,305.1 L98.5,198.3 L111.8,187.6 L125.0,305.1 L138.2,326.5 L151.5,305.1 
		L164.7,315.8 L178.0,315.8 L191.2,294.4 L204.4,326.5 L217.7,209.0 L230.9,209.0 L244.1,209.0 L257.4,326.5 
		L270.6,315.8 L283.8,305.1 L297.1,326.5 L310.3,315.8 L323.5,315.8 L336.8,155.6 L350.0,155.6 L363.2,305.1 
		L376.5,209.0 L389.7,155.6 L402.9,209.0 L416.2,326.5 L429.4,326.5 L442.7,176.9 L455.9,209.0 L469.1,326.5 
		L482.4,305.1 L495.6,176.9 L508.8,315.8 L522.1,305.1 L535.3,305.1 L548.5,187.6 L561.8,187.6 L575.0,209.0 
		 '/></g>
	</g>
	<g id="gnuplot_plot_19" ><title>gnuplot_plot_19</title>
<g style="fill:none; color:#000094; stroke:currentColor; stroke-width:1.00; stroke-linecap:butt; stroke-linejoin:miter">
	<path stroke='#000094'  d='M58.8,187.6 L72.1,326.5 L85.3,305.1 L98.5,187.6 L111.8,315.8 L125.0,187.6 L138.2,198.3 L151.5,315.8 
		L164.7,198.3 L178.0,176.9 L191.2,315.8 L204.4,305.1 L217.7,305.1 L230.9,198.3 L244.1,187.6 L257.4,326.5 
		L270.6,187.6 L283.8,155.6 L297.1,187.6 L310.3,305.1 L323.5,305.1 L336.8,187.6 L350.0,315.8 L363.2,187.6 
		L376.5,305.1 L389.7,155.6 L402.9,166.3 L416.2,326.5 L429.4,305.1 L442.7,294.4 L455.9,198.3 L469.1,305.1 
		L482.4,315.8 L495.6,187.6 L508.8,155.6 L522.1,294.4 L535.3,294.4 L548.5,294.4 L561.8,187.6 L575.0,187.6 
		 '/></g>
	</g>
	<g id="gnuplot_plot_20" ><title>gnuplot_plot_20</title>
<g style="fill:none; color:#FF9900; stroke:currentColor; stroke-width:1.00; stroke-linecap:butt; stroke-linejoin:miter">
	<path stroke='#FF9900'  d='M58.8,305.1 L72.1,187.6 L85.3,166.3 L98.5,305.1 L111.8,187.6 L125.0,315.8 L138.2,187.6 L151.5,198.3 
		L164.7,209.0 L178.0,315.8 L191.2,187.6 L204.4,187.6 L217.7,209.0 L230.9,326.5 L244.1,305.1 L257.4,176.9 
		L270.6,187.6 L283.8,187.6 L297.1,187.6 L310.3,326.5 L323.5,176.9 L336.8,209.0 L350.0,315.8 L363.2,187.6 
		L376.5,187.6 L389.7,294.4 L402.9,166.3 L416.2,305.1 L429.4,187.6 L442.7,305.1 L455.9,315.8 L469.1,315.8 
		L482.4,187.6 L495.6,315.8 L508.8,326.5 L522.1,155.6 L535.3,294.4 L548.5,315.8 L561.8,294.4 L575.0,326.5 
		 '/></g>
	</g>
	<g id="gnuplot_plot_21" ><title>gnuplot_plot_21</title>
<g style="fill:none; color:#0099A1; stroke:currentColor; stroke-width:1.00; stroke-linecap:butt; stroke-linejoin:miter">
	<path stroke='#0099A1'  d='M58.8,187.6 L72.1,155.6 L85.3,305.1 L98.5,305.1 L111.8,326.5 L125.0,187.6 L138.2,209.0 L151.5,305.1 
		L164.7,166.3 L178.0,198.3 L191.2,315.8 L204.4,315.8 L217.7,305.1 L230.9,187.6 L244.1,315.8 L257.4,326.5 
		L270.6,326.5 L283.8,187.6 L297.1,315.8 L310.3,315.8 L323.5,187.6 L336.8,176.9 L350.0,187.6 L363.2,305.1 
		L376.5,315.8 L389.7,166.3 L402.9,176.9 L416.2,315.8 L429.4,326.5 L442.7,166.3 L455.9,187.6 L469.1,305.1 
		L482.4,294.4 L495.6,315.8 L508.8,187.6 L522.1,326.5 L535.3,305.1 L548.5,326.5 L561.8,155.6 L575.0,166.3 
		 '/></g>
	</g>
	<g id="gnuplot_plot_22" ><title>gnuplot_plot_22</title>
<g style="fill:none; color:#D6D645; stroke:currentColor; stroke-width:1.00; stroke-linecap:butt; stroke-linejoin:miter">
	<path stroke='#D6D645'  d='M58.8,176.9 L72.1,326.5 L85.3,209.0 L98.5,209.0 L111.8,326.5 L125.0,326.5 L138.2,209.0 L151.5,209.0 
		L164.7,209.0 L178.0,326.5 L191.2,209.0 L204.4,176.9 L217.7,187.6 L230.9,187.6 L244.1,326.5 L257.4,326.5 
		L270.6,209.0 L283.8,326.5 L297.1,305.1 L310.3,166.3 L323.5,198.3 L336.8,326.5 L350.0,326.5 L363.2,305.1 
		L376.5,176.9 L389.7,326.5 L402.9,305.1 L416.2,315.8 L429.4,305.1 L442.7,326.5 L455.9,315.8 L469.1,326.5 
		L482.4,209.0 L495.6,209.0 L508.8,187.6 L522.1,187.6 L535.3,337.2 L548.5,305.1 L561.8,315.8 L575.0,326.5 
		 '/></g>
	</g>
	<g id="gnuplot_plot_23" ><title>gnuplot_plot_23</title>
<g style="fill:none; color:#A391FF; stroke:currentColor; stroke-width:1.00; stroke-linecap:butt; stroke-linejoin:miter">
	<path stroke='#A391FF'  d='M58.8,209.0 L72.1,337.2 L85.3,187.6 L98.5,305.1 L111.8,209.0 L125.0,187.6 L138.2,326.5 L151.5,305.1 
		L164.7,315.8 L178.0,209.0 L191.2,326.5 L204.4,326.5 L217.7,337.2 L230.9,305.1 L244.1,187.6 L257.4,176.9 
		L270.6,155.6 L283.8,209.0 L297.1,187.6 L310.3,305.1 L323.5,187.6 L336.8,209.0 L350.0,187.6 L363.2,198.3 
		L376.5,209.0 L389.7,209.0 L402.9,198.3 L416.2,176.9 L429.4,209.0 L442.7,326.5 L455.9,187.6 L469.1,315.8 
		L482.4,326.5 L495.6,187.6 L508.8,187.6 L522.1,187.6 L535.3,305.1 L548.5,326.5 L561.8,187.6 L575.0,187.6 
		 '/></g>
	</g>
	<g id="gnuplot_plot_24" ><title>gnuplot_plot_24</title>
<g style="fill:none; color:#FFCC00; stroke:currentColor; stroke-width:1.00; stroke-linecap:butt; stroke-linejoin:miter">
	<path stroke='#FFCC00'  d='M58.8,176.9 L72.1,166.3 L85.3,166.3 L98.5,305.1 L111.8,283.8 L125.0,305.1 L138.2,315.8 L151.5,305.1 
		L164.7,198.3 L178.0,166.3 L191.2,187.6 L204.4,294.4 L217.7,305.1 L230.9,176.9 L244.1,305.1 L257.4,315.8 
		L270.6,166.3 L283.8,166.3 L297.1,187.6 L310.3,315.8 L323.5,294.4 L336.8,166.3 L350.0,166.3 L363.2,283.8 
		L376.5,294.4 L389.7,166.3 L402.9,166.3 L416.2,166.3 L429.4,315.8 L442.7,166.3 L455.9,155.6 L469.1,166.3 
		L482.4,294.4 L495.6,209.0 L508.8,176.9 L522.1,166.3 L535.3,294.4 L548.5,155.6 L561.8,176.9 L575.0,315.8 
		 '/></g>
	</g>
	<g id="gnuplot_plot_25" ><title>gnuplot_plot_25</title>
<g style="fill:none; color:#D60078; stroke:currentColor; stroke-width:1.00; stroke-linecap:butt; stroke-linejoin:miter">
	<path stroke='#D60078'  d='M58.8,305.1 L72.1,315.8 L85.3,187.6 L98.5,155.6 L111.8,305.1 L125.0,176.9 L138.2,187.6 L151.5,187.6 
		L164.7,305.1 L178.0,166.3 L191.2,187.6 L204.4,187.6 L217.7,176.9 L230.9,294.4 L244.1,187.6 L257.4,305.1 
		L270.6,315.8 L283.8,315.8 L297.1,187.6 L310.3,166.3 L323.5,166.3 L336.8,326.5 L350.0,305.1 L363.2,198.3 
		L376.5,305.1 L389.7,294.4 L402.9,315.8 L416.2,187.6 L429.4,326.5 L442.7,326.5 L455.9,209.0 L469.1,187.6 
		L482.4,305.1 L495.6,305.1 L508.8,187.6 L522.1,155.6 L535.3,187.6 L548.5,326.5 L561.8,305.1 L575.0,176.9 
		 '/></g>
	</g>
	<g id="gnuplot_plot_26" ><title>gnuplot_plot_26</title>
<g style="fill:none; color:#ABD600; stroke:currentColor; stroke-width:1.00; stroke-linecap:butt; stroke-linejoin:miter">
	<path stroke='#ABD600'  d='M58.8,305.1 L72.1,155.6 L85.3,187.6 L98.5,315.8 L111.8,176.9 L125.0,305.1 L138.2,166.3 L151.5,326.5 
		L164.7,326.5 L178.0,294.4 L191.2,305.1 L204.4,155.6 L217.7,187.6 L230.9,294.4 L244.1,187.6 L257.4,305.1 
		L270.6,187.6 L283.8,315.8 L297.1,305.1 L310.3,326.5 L323.5,326.5 L336.8,305.1 L350.0,305.1 L363.2,315.8 
		L376.5,294.4 L389.7,315.8 L402.9,337.2 L416.2,294.4 L429.4,187.6 L442.7,315.8 L455.9,305.1 L469.1,155.6 
		L482.4,187.6 L495.6,187.6 L508.8,305.1 L522.1,187.6 L535.3,166.3 L548.5,176.9 L561.8,315.8 L575.0,283.8 
		 '/></g>
	</g>
	<g id="gnuplot_plot_27" ><title>gnuplot_plot_27</title>
<g style="fill:none; color:red; stroke:currentColor; stroke-width:1.00; stroke-linecap:butt; stroke-linejoin:miter">
	<path stroke='red'  d='M58.8,326.5 L72.1,305.1 L85.3,209.0 L98.5,176.9 L111.8,209.0 L125.0,166.3 L138.2,209.0 L151.5,315.8 
		L164.7,326.5 L178.0,305.1 L191.2,176.9 L204.4,187.6 L217.7,155.6 L230.9,326.5 L244.1,187.6 L257.4,305.1 
		L270.6,305.1 L283.8,326.5 L297.1,219.7 L310.3,209.0 L323.5,176.9 L336.8,315.8 L350.0,198.3 L363.2,315.8 
		L376.5,155.6 L389.7,294.4 L402.9,209.0 L416.2,294.4 L429.4,209.0 L442.7,305.1 L455.9,305.1 L469.1,209.0 
		L482.4,134.2 L495.6,337.2 L508.8,305.1 L522.1,315.8 L535.3,209.0 L548.5,187.6 L561.8,187.6 L575.0,326.5 
		 '/></g>
	</g>
	<g id="gnuplot_plot_28" ><title>gnuplot_plot_28</title>
<g style="fill:none; color:green; stroke:currentColor; stroke-width:1.00; stroke-linecap:butt; stroke-linejoin:miter">
	<path stroke='green'  d='M58.8,305.1 L72.1,198.3 L85.3,305.1 L98.5,209.0 L111.8,187.6 L125.0,187.6 L138.2,305.1 L151.5,209.0 
		L164.7,326.5 L178.0,209.0 L191.2,315.8 L204.4,315.8 L217.7,315.8 L230.9,166.3 L244.1,187.6 L257.4,326.5 
		L270.6,187.6 L283.8,187.6 L297.1,315.8 L310.3,305.1 L323.5,176.9 L336.8,315.8 L350.0,187.6 L363.2,187.6 
		L376.5,326.5 L389.7,187.6 L402.9,187.6 L416.2,305.1 L429.4,294.4 L442.7,187.6 L455.9,326.5 L469.1,326.5 
		L482.4,187.6 L495.6,326.5 L508.8,155.6 L522.1,187.6 L535.3,187.6 L548.5,305.1 L561.8,187.6 L575.0,166.3 
		 '/></g>
	</g>
	<g id="gnuplot_plot_29" ><title>gnuplot_plot_29</title>
<g style="fill:none; color:blue; stroke:currentColor; stroke-width:1.00; stroke-linecap:butt; stroke-linejoin:miter">
	<path stroke='blue'  d='M58.8,209.0 L72.1,326.5 L85.3,209.0 L98.5,326.5 L111.8,209.0 L125.0,198.3 L138.2,326.5 L151.5,326.5 
		L164.7,209.0 L178.0,209.0 L191.2,305.1 L204.4,326.5 L217.7,326.5 L230.9,326.5 L244.1,337.2 L257.4,187.6 
		L270.6,176.9 L283.8,198.3 L297.1,155.6 L310.3,305.1 L323.5,326.5 L336.8,176.9 L350.0,209.0 L363.2,315.8 
		L376.5,315.8 L389.7,176.9 L402.9,187.6 L416.2,326.5 L429.4,326.5 L442.7,155.6 L455.9,209.0 L469.1,187.6 
		L482.4,326.5 L495.6,176.9 L508.8,187.6 L522.1,187.6 L535.3,326.5 L548.5,155.6 L561.8,176.9 L575.0,315.8 
		 '/></g>
	</g>
	<g id="gnuplot_plot_30" ><title>gnuplot_plot_30</title>
<g style="fill:none; color:cyan; stroke:currentColor; stroke-width:1.00; stroke-linecap:butt; stroke-linejoin:miter">
	<path stroke='cyan'  d='M58.8,176.9 L72.1,187.6 L85.3,305.1 L98.5,326.5 L111.8,187.6 L125.0,187.6 L138.2,326.5 L151.5,305.1 
		L164.7,187.6 L178.0,187.6 L191.2,326.5 L204.4,305.1 L217.7,187.6 L230.9,155.6 L244.1,305.1 L257.4,305.1 
		L270.6,187.6 L283.8,187.6 L297.1,326.5 L310.3,305.1 L323.5,187.6 L336.8,187.6 L350.0,326.5 L363.2,315.8 
		L376.5,187.6 L389.7,305.1 L402.9,187.6 L416.2,326.5 L429.4,326.5 L442.7,209.0 L455.9,305.1 L469.1,305.1 
		L482.4,305.1 L495.6,166.3 L508.8,209.0 L522.1,315.8 L535.3,305.1 L548.5,198.3 L561.8,187.6 L575.0,209.0 
		 '/></g>
	</g>
	<g id="gnuplot_plot_31" ><title>gnuplot_plot_31</title>
<g style="fill:none; color:#157545; stroke:currentColor; stroke-width:1.00; stroke-linecap:butt; stroke-linejoin:miter">
	<path stroke='#157545'  d='M58.8,326.5 L72.1,209.0 L85.3,305.1 L98.5,187.6 L111.8,209.0 L125.0,209.0 L138.2,209.0 L151.5,209.0 
		L164.7,326.5 L178.0,326.5 L191.2,305.1 L204.4,305.1 L217.7,305.1 L230.9,198.3 L244.1,326.5 L257.4,305.1 
		L270.6,326.5 L283.8,176.9 L297.1,198.3 L310.3,326.5 L323.5,326.5 L336.8,209.0 L350.0,209.0 L363.2,305.1 
		L376.5,326.5 L389.7,187.6 L402.9,198.3 L416.2,187.6 L429.4,209.0 L442.7,209.0 L455.9,209.0 L469.1,209.0 
		L482.4,326.5 L495.6,326.5 L508.8,187.6 L522.1,315.8 L535.3,326.5 L548.5,305.1 L561.8,198.3 L575.0,305.1 
		 '/></g>
	</g>
	<g id="gnuplot_plot_32" ><title>gnuplot_plot_32</title>
<g style="fill:none; color:#000094; stroke:currentColor; stroke-width:1.00; stroke-linecap:butt; stroke-linejoin:miter">
	<path stroke='#000094'  d='M58.8,187.6 L72.1,209.0 L85.3,209.0 L98.5,315.8 L111.8,209.0 L125.0,209.0 L138.2,326.5 L151.5,305.1 
		L164.7,326.5 L178.0,209.0 L191.2,187.6 L204.4,315.8 L217.7,219.7 L230.9,209.0 L244.1,326.5 L257.4,326.5 
		L270.6,326.5 L283.8,326.5 L297.1,209.0 L310.3,315.8 L323.5,326.5 L336.8,209.0 L350.0,198.3 L363.2,326.5 
		L376.5,326.5 L389.7,326.5 L402.9,326.5 L416.2,305.1 L429.4,326.5 L442.7,294.4 L455.9,209.0 L469.1,187.6 
		L482.4,294.4 L495.6,326.5 L508.8,209.0 L522.1,326.5 L535.3,305.1 L548.5,209.0 L561.8,187.6 L575.0,209.0 
		 '/></g>
	</g>
	<g id="gnuplot_plot_33" ><title>gnuplot_plot_33</title>
<g style="fill:none; color:#FF9900; stroke:currentColor; stroke-width:1.00; stroke-linecap:butt; stroke-linejoin:miter">
	<path stroke='#FF9900'  d='M58.8,305.1 L72.1,198.3 L85.3,209.0 L98.5,305.1 L111.8,305.1 L125.0,187.6 L138.2,219.7 L151.5,315.8 
		L164.7,155.6 L178.0,187.6 L191.2,155.6 L204.4,326.5 L217.7,294.4 L230.9,305.1 L244.1,187.6 L257.4,315.8 
		L270.6,326.5 L283.8,326.5 L297.1,176.9 L310.3,187.6 L323.5,305.1 L336.8,187.6 L350.0,315.8 L363.2,305.1 
		L376.5,305.1 L389.7,283.8 L402.9,187.6 L416.2,187.6 L429.4,326.5 L442.7,305.1 L455.9,187.6 L469.1,209.0 
		L482.4,187.6 L495.6,305.1 L508.8,187.6 L522.1,187.6 L535.3,305.1 L548.5,305.1 L561.8,305.1 L575.0,166.3 
		 '/></g>
	</g>
	<g id="gnuplot_plot_34" ><title>gnuplot_plot_34</title>
<g style="fill:none; color:#0099A1; stroke:currentColor; stroke-width:1.00; stroke-linecap:butt; stroke-linejoin:miter">
	<path stroke='#0099A1'  d='M58.8,315.8 L72.1,176.9 L85.3,209.0 L98.5,176.9 L111.8,305.1 L125.0,315.8 L138.2,198.3 L151.5,209.0 
		L164.7,209.0 L178.0,209.0 L191.2,187.6 L204.4,305.1 L217.7,326.5 L230.9,305.1 L244.1,305.1 L257.4,209.0 
		L270.6,187.6 L283.8,305.1 L297.1,187.6 L310.3,209.0 L323.5,198.3 L336.8,326.5 L350.0,305.1 L363.2,209.0 
		L376.5,198.3 L389.7,326.5 L402.9,337.2 L416.2,209.0 L429.4,176.9 L442.7,315.8 L455.9,305.1 L469.1,305.1 
		L482.4,315.8 L495.6,326.5 L508.8,326.5 L522.1,326.5 L535.3,209.0 L548.5,326.5 L561.8,315.8 L575.0,305.1 
		 '/></g>
	</g>
	<g id="gnuplot_plot_35" ><title>gnuplot_plot_35</title>
<g style="fill:none; color:#D6D645; stroke:currentColor; stroke-width:1.00; stroke-linecap:butt; stroke-linejoin:miter">
	<path stroke='#D6D645'  d='M58.8,155.6 L72.1,294.4 L85.3,187.6 L98.5,176.9 L111.8,209.0 L125.0,209.0 L138.2,326.5 L151.5,305.1 
		L164.7,187.6 L178.0,326.5 L191.2,326.5 L204.4,209.0 L217.7,187.6 L230.9,209.0 L244.1,209.0 L257.4,187.6 
		L270.6,187.6 L283.8,187.6 L297.1,305.1 L310.3,305.1 L323.5,198.3 L336.8,326.5 L350.0,326.5 L363.2,305.1 
		L376.5,198.3 L389.7,209.0 L402.9,209.0 L416.2,315.8 L429.4,209.0 L442.7,187.6 L455.9,315.8 L469.1,315.8 
		L482.4,187.6 L495.6,198.3 L508.8,187.6 L522.1,209.0 L535.3,326.5 L548.5,155.6 L561.8,326.5 L575.0,305.1 
		 '/></g>
	</g>
	<g id="gnuplot_plot_36" ><title>gnuplot_plot_36</title>
<g style="fill:none; color:#A391FF; stroke:currentColor; stroke-width:1.00; stroke-linecap:butt; stroke-linejoin:miter">
	<path stroke='#A391FF'  d='M58.8,209.0 L72.1,209.0 L85.3,315.8 L98.5,209.0 L111.8,326.5 L125.0,187.6 L138.2,187.6 L151.5,337.2 
		L164.7,326.5 L178.0,326.5 L191.2,326.5 L204.4,209.0 L217.7,209.0 L230.9,176.9 L244.1,209.0 L257.4,176.9 
		L270.6,337.2 L283.8,209.0 L297.1,187.6 L310.3,209.0 L323.5,315.8 L336.8,326.5 L350.0,209.0 L363.2,305.1 
		L376.5,326.5 L389.7,337.2 L402.9,176.9 L416.2,209.0 L429.4,305.1 L442.7,326.5 L455.9,305.1 L469.1,198.3 
		L482.4,326.5 L495.6,305.1 L508.8,326.5 L522.1,209.0 L535.3,209.0 L548.5,326.5 L561.8,315.8 L575.0,209.0 
		 '/></g>
	</g>
	<g id="gnuplot_plot_37" ><title>gnuplot_plot_37</title>
<g style="fill:none; color:#FFCC00; stroke:currentColor; stroke-width:1.00; stroke-linecap:butt; stroke-linejoin:miter">
	<path stroke='#FFCC00'  d='M58.8,305.1 L72.1,326.5 L85.3,187.6 L98.5,326.5 L111.8,315.8 L125.0,305.1 L138.2,209.0 L151.5,187.6 
		L164.7,326.5 L178.0,209.0 L191.2,209.0 L204.4,315.8 L217.7,326.5 L230.9,315.8 L244.1,326.5 L257.4,187.6 
		L270.6,305.1 L283.8,305.1 L297.1,209.0 L310.3,187.6 L323.5,209.0 L336.8,305.1 L350.0,326.5 L363.2,187.6 
		L376.5,305.1 L389.7,294.4 L402.9,326.5 L416.2,209.0 L429.4,176.9 L442.7,155.6 L455.9,315.8 L469.1,187.6 
		L482.4,198.3 L495.6,294.4 L508.8,209.0 L522.1,209.0 L535.3,315.8 L548.5,305.1 L561.8,315.8 L575.0,187.6 
		 '/></g>
	</g>
	<g id="gnuplot_plot_38" ><title>gnuplot_plot_38</title>
<g style="fill:none; color:#D60078; stroke:currentColor; stroke-width:1.00; stroke-linecap:butt; stroke-linejoin:miter">
	<path stroke='#D60078'  d='M58.8,305.1 L72.1,209.0 L85.3,305.1 L98.5,209.0 L111.8,326.5 L125.0,326.5 L138.2,155.6 L151.5,209.0 
		L164.7,209.0 L178.0,326.5 L191.2,209.0 L204.4,187.6 L217.7,305.1 L230.9,315.8 L244.1,305.1 L257.4,209.0 
		L270.6,326.5 L283.8,315.8 L297.1,326.5 L310.3,209.0 L323.5,315.8 L336.8,326.5 L350.0,326.5 L363.2,209.0 
		L376.5,326.5 L389.7,326.5 L402.9,326.5 L416.2,326.5 L429.4,187.6 L442.7,241.0 L455.9,305.1 L469.1,176.9 
		L482.4,198.3 L495.6,209.0 L508.8,326.5 L522.1,209.0 L535.3,187.6 L548.5,326.5 L561.8,315.8 L575.0,315.8 
		 '/></g>
	</g>
	<g id="gnuplot_plot_39" ><title>gnuplot_plot_39</title>
<g style="fill:none; color:#ABD600; stroke:currentColor; stroke-width:1.00; stroke-linecap:butt; stroke-linejoin:miter">
	<path stroke='#ABD600'  d='M58.8,326.5 L72.1,315.8 L85.3,187.6 L98.5,209.0 L111.8,326.5 L125.0,305.1 L138.2,315.8 L151.5,187.6 
		L164.7,209.0 L178.0,305.1 L191.2,176.9 L204.4,176.9 L217.7,155.6 L230.9,305.1 L244.1,305.1 L257.4,187.6 
		L270.6,305.1 L283.8,326.5 L297.1,305.1 L310.3,209.0 L323.5,209.0 L336.8,315.8 L350.0,326.5 L363.2,315.8 
		L376.5,305.1 L389.7,305.1 L402.9,305.1 L416.2,187.6 L429.4,305.1 L442.7,187.6 L455.9,326.5 L469.1,187.6 
		L482.4,187.6 L495.6,187.6 L508.8,326.5 L522.1,209.0 L535.3,198.3 L548.5,187.6 L561.8,326.5 L575.0,315.8 
		 '/></g>
	</g>
	<g id="gnuplot_plot_40" ><title>gnuplot_plot_40</title>
<g style="fill:none; color:red; stroke:currentColor; stroke-width:1.00; stroke-linecap:butt; stroke-linejoin:miter">
	<path stroke='red'  d='M58.8,155.6 L72.1,187.6 L85.3,326.5 L98.5,187.6 L111.8,155.6 L125.0,326.5 L138.2,326.5 L151.5,305.1 
		L164.7,155.6 L178.0,326.5 L191.2,315.8 L204.4,326.5 L217.7,155.6 L230.9,315.8 L244.1,294.4 L257.4,187.6 
		L270.6,166.3 L283.8,305.1 L297.1,326.5 L310.3,305.1 L323.5,198.3 L336.8,166.3 L350.0,187.6 L363.2,166.3 
		L376.5,176.9 L389.7,305.1 L402.9,315.8 L416.2,305.1 L429.4,305.1 L442.7,198.3 L455.9,305.1 L469.1,326.5 
		L482.4,198.3 L495.6,187.6 L508.8,187.6 L522.1,326.5 L535.3,315.8 L548.5,187.6 L561.8,209.0 L575.0,315.8 
		 '/></g>
	</g>
	<g id="gnuplot_plot_41" ><title>gnuplot_plot_41</title>
<g style="fill:none; color:green; stroke:currentColor; stroke-width:1.00; stroke-linecap:butt; stroke-linejoin:miter">
	<path stroke='green'  d='M58.8,326.5 L72.1,155.6 L85.3,326.5 L98.5,187.6 L111.8,326.5 L125.0,326.5 L138.2,305.1 L151.5,209.0 
		L164.7,209.0 L178.0,326.5 L191.2,198.3 L204.4,187.6 L217.7,326.5 L230.9,326.5 L244.1,326.5 L257.4,209.0 
		L270.6,209.0 L283.8,209.0 L297.1,209.0 L310.3,326.5 L323.5,187.6 L336.8,209.0 L350.0,326.5 L363.2,326.5 
		L376.5,155.6 L389.7,305.1 L402.9,326.5 L416.2,209.0 L429.4,209.0 L442.7,305.1 L455.9,337.2 L469.1,305.1 
		L482.4,209.0 L495.6,187.6 L508.8,326.5 L522.1,326.5 L535.3,209.0 L548.5,166.3 L561.8,326.5 L575.0,209.0 
		 '/></g>
	</g>
	<g id="gnuplot_plot_42" ><title>gnuplot_plot_42</title>
<g style="fill:none; color:blue; stroke:currentColor; stroke-width:1.00; stroke-linecap:butt; stroke-linejoin:miter">
	<path stroke='blue'  d='M58.8,187.6 L72.1,305.1 L85.3,294.4 L98.5,315.8 L111.8,326.5 L125.0,326.5 L138.2,187.6 L151.5,176.9 
		L164.7,305.1 L178.0,326.5 L191.2,326.5 L204.4,209.0 L217.7,326.5 L230.9,283.8 L244.1,315.8 L257.4,187.6 
		L270.6,176.9 L283.8,209.0 L297.1,326.5 L310.3,305.1 L323.5,209.0 L336.8,315.8 L350.0,187.6 L363.2,187.6 
		L376.5,187.6 L389.7,166.3 L402.9,155.6 L416.2,326.5 L429.4,209.0 L442.7,187.6 L455.9,315.8 L469.1,326.5 
		L482.4,315.8 L495.6,176.9 L508.8,326.5 L522.1,326.5 L535.3,305.1 L548.5,198.3 L561.8,187.6 L575.0,187.6 
		 '/></g>
	</g>
	<g id="gnuplot_plot_43" ><title>gnuplot_plot_43</title>
<g style="fill:none; color:cyan; stroke:currentColor; stroke-width:1.00; stroke-linecap:butt; stroke-linejoin:miter">
	<path stroke='cyan'  d='M58.8,326.5 L72.1,176.9 L85.3,209.0 L98.5,326.5 L111.8,187.6 L125.0,187.6 L138.2,187.6 L151.5,187.6 
		L164.7,294.4 L178.0,305.1 L191.2,209.0 L204.4,187.6 L217.7,305.1 L230.9,326.5 L244.1,337.2 L257.4,209.0 
		L270.6,294.4 L283.8,326.5 L297.1,326.5 L310.3,326.5 L323.5,326.5 L336.8,305.1 L350.0,305.1 L363.2,187.6 
		L376.5,315.8 L389.7,315.8 L402.9,315.8 L416.2,187.6 L429.4,209.0 L442.7,326.5 L455.9,315.8 L469.1,155.6 
		L482.4,187.6 L495.6,305.1 L508.8,326.5 L522.1,187.6 L535.3,166.3 L548.5,305.1 L561.8,315.8 L575.0,315.8 
		 '/></g>
	</g>
	<g id="gnuplot_plot_44" ><title>gnuplot_plot_44</title>
<g style="fill:none; color:#157545; stroke:currentColor; stroke-width:1.00; stroke-linecap:butt; stroke-linejoin:miter">
	<path stroke='#157545'  d='M58.8,209.0 L72.1,326.5 L85.3,209.0 L98.5,209.0 L111.8,209.0 L125.0,305.1 L138.2,305.1 L151.5,209.0 
		L164.7,187.6 L178.0,337.2 L191.2,326.5 L204.4,176.9 L217.7,176.9 L230.9,305.1 L244.1,315.8 L257.4,209.0 
		L270.6,209.0 L283.8,209.0 L297.1,187.6 L310.3,315.8 L323.5,219.7 L336.8,326.5 L350.0,315.8 L363.2,209.0 
		L376.5,187.6 L389.7,315.8 L402.9,326.5 L416.2,305.1 L429.4,187.6 L442.7,187.6 L455.9,337.2 L469.1,176.9 
		L482.4,209.0 L495.6,198.3 L508.8,326.5 L522.1,315.8 L535.3,209.0 L548.5,315.8 L561.8,326.5 L575.0,305.1 
		 '/></g>
	</g>
	<g id="gnuplot_plot_45" ><title>gnuplot_plot_45</title>
<g style="fill:none; color:#000094; stroke:currentColor; stroke-width:1.00; stroke-linecap:butt; stroke-linejoin:miter">
	<path stroke='#000094'  d='M58.8,198.3 L72.1,187.6 L85.3,326.5 L98.5,166.3 L111.8,209.0 L125.0,326.5 L138.2,326.5 L151.5,326.5 
		L164.7,187.6 L178.0,305.1 L191.2,305.1 L204.4,209.0 L217.7,155.6 L230.9,209.0 L244.1,315.8 L257.4,209.0 
		L270.6,187.6 L283.8,155.6 L297.1,294.4 L310.3,315.8 L323.5,166.3 L336.8,315.8 L350.0,326.5 L363.2,337.2 
		L376.5,187.6 L389.7,326.5 L402.9,305.1 L416.2,326.5 L429.4,326.5 L442.7,176.9 L455.9,209.0 L469.1,315.8 
		L482.4,315.8 L495.6,187.6 L508.8,187.6 L522.1,326.5 L535.3,305.1 L548.5,187.6 L561.8,315.8 L575.0,315.8 
		 '/></g>
	</g>
	<g id="gnuplot_plot_46" ><title>gnuplot_plot_46</title>
<g style="fill:none; color:#FF9900; stroke:currentColor; stroke-width:1.00; stroke-linecap:butt; stroke-linejoin:miter">
</g>
	</g>
<g style="fill:none; color:black; stroke:currentColor; stroke-width:1.00; stroke-linecap:butt; stroke-linejoin:miter">
	<path stroke='black'  d='M45.6,16.7 L45.6,444.0 L575.0,444.0 L575.0,16.7 L45.6,16.7 Z  '/></g>
</g>
</svg>

