<?xml version="1.0" encoding="utf-8"  standalone="no"?>
<!DOCTYPE svg PUBLIC "-//W3C//DTD SVG 1.1//EN" 
 "http://www.w3.org/Graphics/SVG/1.1/DTD/svg11.dtd">
<svg 
 width="600" height="480" 
 viewBox="0 0 600 480"
 xmlns="http://www.w3.org/2000/svg"
 xmlns:xlink="http://www.w3.org/1999/xlink"
>

<title>Gnuplot</title>
<desc>Produced by GNUPLOT 4.6 patchlevel 5 </desc>

<g id="gnuplot_canvas">

<rect x="0" y="0" width="600" height="480" fill="none"/>
<defs>

	<circle id='gpDot' r='0.5' stroke-width='0.5'/>
	<path id='gpPt0' stroke-width='0.222' stroke='currentColor' d='M-1,0 h2 M0,-1 v2'/>
	<path id='gpPt1' stroke-width='0.222' stroke='currentColor' d='M-1,-1 L1,1 M1,-1 L-1,1'/>
	<path id='gpPt2' stroke-width='0.222' stroke='currentColor' d='M-1,0 L1,0 M0,-1 L0,1 M-1,-1 L1,1 M-1,1 L1,-1'/>
	<rect id='gpPt3' stroke-width='0.222' stroke='currentColor' x='-1' y='-1' width='2' height='2'/>
	<rect id='gpPt4' stroke-width='0.222' stroke='currentColor' fill='currentColor' x='-1' y='-1' width='2' height='2'/>
	<circle id='gpPt5' stroke-width='0.222' stroke='currentColor' cx='0' cy='0' r='1'/>
	<use xlink:href='#gpPt5' id='gpPt6' fill='currentColor' stroke='none'/>
	<path id='gpPt7' stroke-width='0.222' stroke='currentColor' d='M0,-1.33 L-1.33,0.67 L1.33,0.67 z'/>
	<use xlink:href='#gpPt7' id='gpPt8' fill='currentColor' stroke='none'/>
	<use xlink:href='#gpPt7' id='gpPt9' stroke='currentColor' transform='rotate(180)'/>
	<use xlink:href='#gpPt9' id='gpPt10' fill='currentColor' stroke='none'/>
	<use xlink:href='#gpPt3' id='gpPt11' stroke='currentColor' transform='rotate(45)'/>
	<use xlink:href='#gpPt11' id='gpPt12' fill='currentColor' stroke='none'/>
</defs>
<g style="fill:none; color:white; stroke:currentColor; stroke-width:3.00; stroke-linecap:butt; stroke-linejoin:miter">
</g>
<g style="fill:none; color:black; stroke:currentColor; stroke-width:3.00; stroke-linecap:butt; stroke-linejoin:miter">
	<path stroke='black'  d='M71.9,422.4 L80.9,422.4 M575.0,422.4 L566.0,422.4  '/>	<g transform="translate(63.6,426.9)" style="stroke:none; fill:black; font-family:Arial; font-size:12.00pt; text-anchor:end">
		<text> 0</text>
	</g>
	<path stroke='black'  d='M71.9,348.7 L80.9,348.7 M575.0,348.7 L566.0,348.7  '/>	<g transform="translate(63.6,353.2)" style="stroke:none; fill:black; font-family:Arial; font-size:12.00pt; text-anchor:end">
		<text> 0.2</text>
	</g>
	<path stroke='black'  d='M71.9,275.1 L80.9,275.1 M575.0,275.1 L566.0,275.1  '/>	<g transform="translate(63.6,279.6)" style="stroke:none; fill:black; font-family:Arial; font-size:12.00pt; text-anchor:end">
		<text> 0.4</text>
	</g>
	<path stroke='black'  d='M71.9,201.4 L80.9,201.4 M575.0,201.4 L566.0,201.4  '/>	<g transform="translate(63.6,205.9)" style="stroke:none; fill:black; font-family:Arial; font-size:12.00pt; text-anchor:end">
		<text> 0.6</text>
	</g>
	<path stroke='black'  d='M71.9,127.8 L80.9,127.8 M575.0,127.8 L566.0,127.8  '/>	<g transform="translate(63.6,132.3)" style="stroke:none; fill:black; font-family:Arial; font-size:12.00pt; text-anchor:end">
		<text> 0.8</text>
	</g>
	<path stroke='black'  d='M71.9,54.1 L80.9,54.1 M575.0,54.1 L566.0,54.1  '/>	<g transform="translate(63.6,58.6)" style="stroke:none; fill:black; font-family:Arial; font-size:12.00pt; text-anchor:end">
		<text> 1</text>
	</g>
	<path stroke='black'  d='M71.9,422.4 L71.9,413.4 M71.9,54.1 L71.9,63.1  '/>	<g transform="translate(71.9,444.9)" style="stroke:none; fill:black; font-family:Arial; font-size:12.00pt; text-anchor:middle">
		<text> 5</text>
	</g>
	<path stroke='black'  d='M127.8,422.4 L127.8,413.4 M127.8,54.1 L127.8,63.1  '/>	<g transform="translate(127.8,444.9)" style="stroke:none; fill:black; font-family:Arial; font-size:12.00pt; text-anchor:middle">
		<text> 10</text>
	</g>
	<path stroke='black'  d='M183.7,422.4 L183.7,413.4 M183.7,54.1 L183.7,63.1  '/>	<g transform="translate(183.7,444.9)" style="stroke:none; fill:black; font-family:Arial; font-size:12.00pt; text-anchor:middle">
		<text> 15</text>
	</g>
	<path stroke='black'  d='M239.6,422.4 L239.6,413.4 M239.6,54.1 L239.6,63.1  '/>	<g transform="translate(239.6,444.9)" style="stroke:none; fill:black; font-family:Arial; font-size:12.00pt; text-anchor:middle">
		<text> 20</text>
	</g>
	<path stroke='black'  d='M295.5,422.4 L295.5,413.4 M295.5,54.1 L295.5,63.1  '/>	<g transform="translate(295.5,444.9)" style="stroke:none; fill:black; font-family:Arial; font-size:12.00pt; text-anchor:middle">
		<text> 25</text>
	</g>
	<path stroke='black'  d='M351.4,422.4 L351.4,413.4 M351.4,54.1 L351.4,63.1  '/>	<g transform="translate(351.4,444.9)" style="stroke:none; fill:black; font-family:Arial; font-size:12.00pt; text-anchor:middle">
		<text> 30</text>
	</g>
	<path stroke='black'  d='M407.3,422.4 L407.3,413.4 M407.3,54.1 L407.3,63.1  '/>	<g transform="translate(407.3,444.9)" style="stroke:none; fill:black; font-family:Arial; font-size:12.00pt; text-anchor:middle">
		<text> 35</text>
	</g>
	<path stroke='black'  d='M463.2,422.4 L463.2,413.4 M463.2,54.1 L463.2,63.1  '/>	<g transform="translate(463.2,444.9)" style="stroke:none; fill:black; font-family:Arial; font-size:12.00pt; text-anchor:middle">
		<text> 40</text>
	</g>
	<path stroke='black'  d='M519.1,422.4 L519.1,413.4 M519.1,54.1 L519.1,63.1  '/>	<g transform="translate(519.1,444.9)" style="stroke:none; fill:black; font-family:Arial; font-size:12.00pt; text-anchor:middle">
		<text> 45</text>
	</g>
	<path stroke='black'  d='M575.0,422.4 L575.0,413.4 M575.0,54.1 L575.0,63.1  '/>	<g transform="translate(575.0,444.9)" style="stroke:none; fill:black; font-family:Arial; font-size:12.00pt; text-anchor:middle">
		<text> 50</text>
	</g>
	<path stroke='black'  d='M71.9,54.1 L71.9,422.4 L575.0,422.4 L575.0,54.1 L71.9,54.1 Z  '/>	<g transform="translate(17.6,238.3) rotate(270)" style="stroke:none; fill:black; font-family:Arial; font-size:12.00pt; text-anchor:middle">
		<text>Amperage (mA)</text>
	</g>
	<g transform="translate(323.4,471.9)" style="stroke:none; fill:black; font-family:Arial; font-size:12.00pt; text-anchor:middle">
		<text>Cumulative Percentage</text>
	</g>
	<g transform="translate(323.4,31.6)" style="stroke:none; fill:black; font-family:Arial; font-size:12.00pt; text-anchor:middle">
		<text>Ortega Amperage Cumulative Distribution Functions</text>
	</g>
</g>
	<g id="gnuplot_plot_1" ><title>gnuplot_plot_1</title>
<g style="fill:none; color:red; stroke:currentColor; stroke-width:3.00; stroke-linecap:butt; stroke-linejoin:miter">
	<g transform="translate(507.9,76.6)" style="stroke:none; fill:black; font-family:Arial; font-size:12.00pt; text-anchor:end">
		<text>Regular Load</text>
	</g>
	<path  d='M516.2,72.1 L558.4,72.1 M139.0,421.7 L150.2,389.9 L161.3,379.6 L172.5,373.7 L183.7,356.7 L194.9,333.8 
		L206.1,324.2 L217.2,315.4 L228.4,285.9 L239.6,277.0 L250.8,251.9 L262.0,248.2 L273.1,215.7 L284.3,203.9 
		L295.5,198.8 L306.7,188.4 L317.9,158.9 L329.0,154.5 L340.2,144.1 L351.4,140.5 L362.6,123.5 L373.8,117.6 
		L384.9,113.9 L396.1,65.2 L407.3,59.3 L418.5,56.3 L440.8,55.6 L452.0,54.8 L530.3,54.1  '/>	<use xlink:href='#gpPt0' transform='translate(139.0,421.7) scale(4.50)'/>
	<use xlink:href='#gpPt0' transform='translate(150.2,389.9) scale(4.50)'/>
	<use xlink:href='#gpPt0' transform='translate(161.3,379.6) scale(4.50)'/>
	<use xlink:href='#gpPt0' transform='translate(172.5,373.7) scale(4.50)'/>
	<use xlink:href='#gpPt0' transform='translate(183.7,356.7) scale(4.50)'/>
	<use xlink:href='#gpPt0' transform='translate(194.9,333.8) scale(4.50)'/>
	<use xlink:href='#gpPt0' transform='translate(206.1,324.2) scale(4.50)'/>
	<use xlink:href='#gpPt0' transform='translate(217.2,315.4) scale(4.50)'/>
	<use xlink:href='#gpPt0' transform='translate(228.4,285.9) scale(4.50)'/>
	<use xlink:href='#gpPt0' transform='translate(239.6,277.0) scale(4.50)'/>
	<use xlink:href='#gpPt0' transform='translate(250.8,251.9) scale(4.50)'/>
	<use xlink:href='#gpPt0' transform='translate(262.0,248.2) scale(4.50)'/>
	<use xlink:href='#gpPt0' transform='translate(273.1,215.7) scale(4.50)'/>
	<use xlink:href='#gpPt0' transform='translate(284.3,203.9) scale(4.50)'/>
	<use xlink:href='#gpPt0' transform='translate(295.5,198.8) scale(4.50)'/>
	<use xlink:href='#gpPt0' transform='translate(306.7,188.4) scale(4.50)'/>
	<use xlink:href='#gpPt0' transform='translate(317.9,158.9) scale(4.50)'/>
	<use xlink:href='#gpPt0' transform='translate(329.0,154.5) scale(4.50)'/>
	<use xlink:href='#gpPt0' transform='translate(340.2,144.1) scale(4.50)'/>
	<use xlink:href='#gpPt0' transform='translate(351.4,140.5) scale(4.50)'/>
	<use xlink:href='#gpPt0' transform='translate(362.6,123.5) scale(4.50)'/>
	<use xlink:href='#gpPt0' transform='translate(373.8,117.6) scale(4.50)'/>
	<use xlink:href='#gpPt0' transform='translate(384.9,113.9) scale(4.50)'/>
	<use xlink:href='#gpPt0' transform='translate(396.1,65.2) scale(4.50)'/>
	<use xlink:href='#gpPt0' transform='translate(407.3,59.3) scale(4.50)'/>
	<use xlink:href='#gpPt0' transform='translate(418.5,56.3) scale(4.50)'/>
	<use xlink:href='#gpPt0' transform='translate(440.8,55.6) scale(4.50)'/>
	<use xlink:href='#gpPt0' transform='translate(452.0,54.8) scale(4.50)'/>
	<use xlink:href='#gpPt0' transform='translate(537.3,72.1) scale(4.50)'/>
</g>
	</g>
	<g id="gnuplot_plot_2" ><title>gnuplot_plot_2</title>
<g style="fill:none; color:green; stroke:currentColor; stroke-width:3.00; stroke-linecap:butt; stroke-linejoin:miter">
	<g transform="translate(507.9,94.6)" style="stroke:none; fill:black; font-family:Arial; font-size:12.00pt; text-anchor:end">
		<text>Heavy Load</text>
	</g>
	<path  d='M516.2,90.1 L558.4,90.1 M183.7,415.0 L194.9,325.0 L206.1,283.6 L217.2,235.7 L228.4,228.3 L239.6,227.5 
		L306.7,223.9 L317.9,154.5 L329.0,136.8 L340.2,89.5 L351.4,71.8 L362.6,66.6 L373.8,54.1  '/>	<use xlink:href='#gpPt1' transform='translate(183.7,415.0) scale(4.50)'/>
	<use xlink:href='#gpPt1' transform='translate(194.9,325.0) scale(4.50)'/>
	<use xlink:href='#gpPt1' transform='translate(206.1,283.6) scale(4.50)'/>
	<use xlink:href='#gpPt1' transform='translate(217.2,235.7) scale(4.50)'/>
	<use xlink:href='#gpPt1' transform='translate(228.4,228.3) scale(4.50)'/>
	<use xlink:href='#gpPt1' transform='translate(239.6,227.5) scale(4.50)'/>
	<use xlink:href='#gpPt1' transform='translate(306.7,223.9) scale(4.50)'/>
	<use xlink:href='#gpPt1' transform='translate(317.9,154.5) scale(4.50)'/>
	<use xlink:href='#gpPt1' transform='translate(329.0,136.8) scale(4.50)'/>
	<use xlink:href='#gpPt1' transform='translate(340.2,89.5) scale(4.50)'/>
	<use xlink:href='#gpPt1' transform='translate(351.4,71.8) scale(4.50)'/>
	<use xlink:href='#gpPt1' transform='translate(362.6,66.6) scale(4.50)'/>
	<use xlink:href='#gpPt1' transform='translate(373.8,54.1) scale(4.50)'/>
	<use xlink:href='#gpPt1' transform='translate(537.3,90.1) scale(4.50)'/>
</g>
	</g>
	<g id="gnuplot_plot_3" ><title>gnuplot_plot_3</title>
<g style="fill:none; color:blue; stroke:currentColor; stroke-width:3.00; stroke-linecap:butt; stroke-linejoin:miter">
	<g transform="translate(507.9,112.6)" style="stroke:none; fill:black; font-family:Arial; font-size:12.00pt; text-anchor:end">
		<text>No Load</text>
	</g>
	<path  d='M516.2,108.1 L558.4,108.1 M105.4,418.7 L116.6,415.0 L127.8,405.4 L139.0,387.0 L150.2,359.7 L161.3,350.8 
		L172.5,341.9 L183.7,328.7 L194.9,317.6 L206.1,313.9 L217.2,305.0 L228.4,278.5 L239.6,271.8 L250.8,232.0 
		L262.0,227.5 L273.1,190.6 L284.3,175.9 L295.5,172.9 L306.7,150.0 L317.9,133.8 L329.0,132.3 L340.2,122.7 
		L351.4,122.0 L362.6,113.1 L373.8,110.2 L384.9,109.5 L396.1,87.3 L407.3,80.7 L418.5,68.9 L429.7,65.2 
		L440.8,56.3 L452.0,54.1  '/>	<use xlink:href='#gpPt2' transform='translate(105.4,418.7) scale(4.50)'/>
	<use xlink:href='#gpPt2' transform='translate(116.6,415.0) scale(4.50)'/>
	<use xlink:href='#gpPt2' transform='translate(127.8,405.4) scale(4.50)'/>
	<use xlink:href='#gpPt2' transform='translate(139.0,387.0) scale(4.50)'/>
	<use xlink:href='#gpPt2' transform='translate(150.2,359.7) scale(4.50)'/>
	<use xlink:href='#gpPt2' transform='translate(161.3,350.8) scale(4.50)'/>
	<use xlink:href='#gpPt2' transform='translate(172.5,341.9) scale(4.50)'/>
	<use xlink:href='#gpPt2' transform='translate(183.7,328.7) scale(4.50)'/>
	<use xlink:href='#gpPt2' transform='translate(194.9,317.6) scale(4.50)'/>
	<use xlink:href='#gpPt2' transform='translate(206.1,313.9) scale(4.50)'/>
	<use xlink:href='#gpPt2' transform='translate(217.2,305.0) scale(4.50)'/>
	<use xlink:href='#gpPt2' transform='translate(228.4,278.5) scale(4.50)'/>
	<use xlink:href='#gpPt2' transform='translate(239.6,271.8) scale(4.50)'/>
	<use xlink:href='#gpPt2' transform='translate(250.8,232.0) scale(4.50)'/>
	<use xlink:href='#gpPt2' transform='translate(262.0,227.5) scale(4.50)'/>
	<use xlink:href='#gpPt2' transform='translate(273.1,190.6) scale(4.50)'/>
	<use xlink:href='#gpPt2' transform='translate(284.3,175.9) scale(4.50)'/>
	<use xlink:href='#gpPt2' transform='translate(295.5,172.9) scale(4.50)'/>
	<use xlink:href='#gpPt2' transform='translate(306.7,150.0) scale(4.50)'/>
	<use xlink:href='#gpPt2' transform='translate(317.9,133.8) scale(4.50)'/>
	<use xlink:href='#gpPt2' transform='translate(329.0,132.3) scale(4.50)'/>
	<use xlink:href='#gpPt2' transform='translate(340.2,122.7) scale(4.50)'/>
	<use xlink:href='#gpPt2' transform='translate(351.4,122.0) scale(4.50)'/>
	<use xlink:href='#gpPt2' transform='translate(362.6,113.1) scale(4.50)'/>
	<use xlink:href='#gpPt2' transform='translate(373.8,110.2) scale(4.50)'/>
	<use xlink:href='#gpPt2' transform='translate(384.9,109.5) scale(4.50)'/>
	<use xlink:href='#gpPt2' transform='translate(396.1,87.3) scale(4.50)'/>
	<use xlink:href='#gpPt2' transform='translate(407.3,80.7) scale(4.50)'/>
	<use xlink:href='#gpPt2' transform='translate(418.5,68.9) scale(4.50)'/>
	<use xlink:href='#gpPt2' transform='translate(429.7,65.2) scale(4.50)'/>
	<use xlink:href='#gpPt2' transform='translate(440.8,56.3) scale(4.50)'/>
	<use xlink:href='#gpPt2' transform='translate(537.3,108.1) scale(4.50)'/>
</g>
	</g>
	<g id="gnuplot_plot_4" ><title>gnuplot_plot_4</title>
<g style="fill:none; color:cyan; stroke:currentColor; stroke-width:3.00; stroke-linecap:butt; stroke-linejoin:miter">
</g>
	</g>
<g style="fill:none; color:black; stroke:currentColor; stroke-width:3.00; stroke-linecap:butt; stroke-linejoin:miter">
	<path stroke='black'  d='M71.9,54.1 L71.9,422.4 L575.0,422.4 L575.0,54.1 L71.9,54.1 Z  '/></g>
</g>
</svg>

